…
Lastly, we will also consider annual anomalies by grouping the monthly
data and producing a scatterplot:

#creating yearly averages
average_annual_anomaly <- tidyweather %>% 
  group_by(Year) %>%   #grouping data by Year
  
  # creating summaries for mean delta 
  # use `na.rm=TRUE` to eliminate NA (not available) values 
  summarise(yearly_mean = mean(delta, na.rm=TRUE)) 
  
average_annual_anomaly

## # A tibble: 143 × 2
##     Year yearly_mean
##    <dbl>       <dbl>
##  1  1880      -0.294
##  2  1881      -0.178
##  3  1882      -0.208
##  4  1883      -0.284
##  5  1884      -0.427
##  6  1885      -0.435
##  7  1886      -0.434
##  8  1887      -0.437
##  9  1888      -0.236
## 10  1889      -0.177
## # … with 133 more rows
…
for_plots

## # A tibble: 3,851 × 5
##     year country.x   renew_rounded  value income_level
##    <int> <chr>               <dbl>  <dbl> <chr>       
##  1  2003 Afghanistan         0.671 0.0515 Low income  
##  2  2004 Afghanistan         0.632 0.0417 Low income  
##  3  2005 Afghanistan         0.632 0.0604 Low income  
##  4  2006 Afghanistan         0.761 0.0666 Low income  
##  5  2007 Afghanistan         0.791 0.0653 Low income  
##  6  2008 Afghanistan         0.744 0.128  Low income  
##  7  2009 Afghanistan         0.827 0.172  Low income  
##  8  2010 Afghanistan         0.802 0.244  Low income  
##  9  2011 Afghanistan         0.703 0.297  Low income  
## 10  2012 Afghanistan         0.809 0.259  Low income  
## # … with 3,841 more rows
…
